90004
90005
90006
90008
90010
90012
90013
90014
90015
90016
90017
90019
90020
90021
90024
90025
90027
90028
90029
90031
90032
90034
90035
90036
90038
90039
90042
90043
90045
90046
90048
90049
90056
90057
90061
90064
90065
90066
90067
90069
90094
90210
90211
90212
90230
90232
90241
90245
90247
90249
90250
90254
90255
90260
90262
90272
90274
90275
90277
90278
90291
90292
90293
90301
90302
90305
90402
90403
90404
90405
90502
90503
90505
90601
90603
90638
90640
90650
90701
90703
90706
90710
90716
90717
90723
90731
90732
90744
90745
90746
90755
90802
90803
90804
90805
90807
90810
90813
90814
91006
91007
91010
91016
91030
91101
91103
91104
91105
91106
91107
91201
91202
91203
91204
91205
91206
91207
91208
91214
91301
91303
91304
91306
91311
91316
91321
91324
91325
91326
91335
91342
91343
91350
91351
91352
91354
91355
91356
91361
91367
91381
91387
91401
91402
91403
91502
91604
91605
91607
91702
91706
91711
91722
91723
91724
91731
91732
91733
91744
91745
91755
91765
91766
91767
91768
91770
91773
91776
91780
91789
91790
91791
91792
91801
91803
93535
93536
93550
93551
90630
91345
91390
93510
93543
93544
93552
90001
90002
90003
90007
90011
90018
90022
90023
90026
90033
90037
90040
90041
90044
90047
90059
90062
90063
90068
90077
90201
90220
90221
90222
90240
90242
90248
90265
90266
90270
90280
90290
90303
90304
90501
90504
90602
90604
90605
90606
90631
90660
90670
90712
90713
90715
90740
90806
90808
90815
91001
91011
91020
91024
91040
91108
91302
91305
91307
91340
91344
91364
91384
91405
91406
91411
91423
91436
91501
91504
91505
91506
91601
91606
91710
91740
91741
91746
91748
91750
91754
91759
91763
91775
93532
93534
93553
93591
93661
90401
