Single Family Residential,90012.0,1395000,3.0,6.5,Silver Lake - Echo Park,2362.0,1500.0,2021.0,1
Single Family Residential,90022.0,1430000,2.0,5.0,Montebello,3500.0,4863.0,1951.0,0
Single Family Residential,90031.0,1499900,3.0,5.0,679 - Montecito Heights,3036.0,7065.0,1989.0,0
Single Family Residential,90036.0,2650000,5.0,5.0,HPK - Hancock Park,3590.0,6460.0,2010.0,0
Single Family Residential,90039.0,1649000,5.0,6.0,Atwater,2330.0,5404.0,1923.0,0
Single Family Residential,90039.0,2750000,5.0,5.0,Silver Lake - Echo Park,3150.0,7488.0,2021.0,0
Single Family Residential,90041.0,2399000,5.0,5.0,Eagle Rock,3000.0,7212.0,1929.0,0
Single Family Residential,90045.0,2495000,5.0,5.0,Westchester,3459.0,5500.0,1997.0,0
Single Family Residential,90046.0,2275000,5.0,5.5,West Hollywood Vicinity,5339.0,7000.0,2021.0,0
Single Family Residential,90046.0,2650000,5.0,5.0,C03 - Sunset Strip - Hollywood Hills West,3852.0,16433.0,1988.0,0
Single Family Residential,90046.0,2795000,5.0,5.0,C03 - Sunset Strip - Hollywood Hills West,3492.0,8463.0,1986.0,0
Single Family Residential,90056.0,1900000,5.0,5.0,C34 - Los Angeles Southwest,4598.0,8969.0,1963.0,0
Single Family Residential,90064.0,2850000,5.0,5.0,Cheviot Hills - Rancho Park,3777.0,7508.0,1938.0,0
Single Family Residential,90065.0,1999999,4.0,5.5,Mt Washington,4050.0,5090.0,1923.0,0
Single Family Residential,90068.0,1580000,5.0,5.5,Los Feliz,2186.0,6894.0,1920.0,0
Single Family Residential,90068.0,2100000,4.0,5.0,Sunset Strip - Hollywood Hills West,3402.0,4652.0,1925.0,0
Single Family Residential,90068.0,2575000,4.0,5.0,Sunset Strip - Hollywood Hills West,3695.0,21693.0,1980.0,0
Single Family Residential,90068.0,2850000,4.0,5.0,Hollywood Hills East,3973.0,6410.0,1950.0,0
Single Family Residential,90069.0,2299000,4.0,5.0,West Hollywood Vicinity,2625.0,5127.0,,0
Single Family Residential,90230.0,1750000,4.0,5.0,C28 - Culver City,3190.0,5092.0,2018.0,0
Single Family Residential,90241.0,1649999,4.0,5.0,"D4 - Southeast Downey, S of Firestone, E of Downey",3443.0,5971.0,2007.0,0
Single Family Residential,90241.0,2399950,5.0,5.0,"D1 - Northeast Downey, N of Firestone, E of Downey",3839.0,7610.0,2003.0,0
Single Family Residential,90275.0,2588000,4.0,5.0,172 - La Cresta,5523.0,7814.0,1981.0,1
Single Family Residential,90291.0,2350000,5.0,7.0,Venice,5400.0,10412.0,1922.0,0
Single Family Residential,90602.0,1880000,4.0,5.0,670 - Whittier,4200.0,13000.0,1958.0,0
Single Family Residential,90604.0,959000,4.0,5.0,670 - Whittier,2427.0,9082.0,1956.0,0
Single Family Residential,90605.0,2199000,5.0,5.0,670 - Whittier,6000.0,87283.0,1941.0,0
Single Family Residential,90605.0,2495000,5.0,6.0,Whittier,5905.0,54909.0,1957.0,0
Single Family Residential,90631.0,1498888,3.0,5.0,88 - La Habra Heights,4169.0,46740.0,1967.0,0
Single Family Residential,90631.0,1699888,4.0,5.0,88 - La Habra Heights,3589.0,48787.0,1989.0,0
Single Family Residential,90631.0,2499000,4.0,5.0,88 - La Habra Heights,5113.0,76230.0,1999.0,0
Single Family Residential,90640.0,1299000,5.0,5.0,Montebello,4212.0,24270.0,1963.0,0
Single Family Residential,90703.0,2400000,5.0,5.5,Cerritos,3655.0,5825.0,1970.0,0
Single Family Residential,90807.0,2250999,5.0,5.0,"6 - Bixby, Bixby Knolls, Los Cerritos",4744.0,9052.0,2008.0,1
Single Family Residential,91006.0,1780000,4.0,6.0,605 - Arcadia,3976.0,8250.0,2016.0,0
Single Family Residential,91006.0,1880000,5.0,5.5,605 - Arcadia,3533.0,8500.0,1951.0,0
Single Family Residential,91006.0,2050000,4.0,5.0,605 - Arcadia,3019.0,5861.0,2017.0,0
Single Family Residential,91006.0,2270000,5.0,5.0,605 - Arcadia,4239.0,11991.0,2005.0,0
Single Family Residential,91006.0,2280000,5.0,5.0,605 - Arcadia,4043.0,19810.0,1958.0,0
Single Family Residential,91006.0,2400000,5.0,10.0,605 - Arcadia,5170.0,11595.0,1996.0,0
Single Family Residential,91006.0,2728000,5.0,6.0,605 - Arcadia,5389.0,10576.0,1998.0,0
Single Family Residential,91007.0,2080000,4.0,5.0,605 - Arcadia,3273.0,7815.0,2014.0,0
Single Family Residential,91007.0,2650000,4.0,5.5,605 - Arcadia,3297.0,34878.0,1948.0,0
Single Family Residential,91007.0,2750000,5.0,5.0,605 - Arcadia,5036.0,11008.0,2016.0,0
Single Family Residential,91007.0,2820000,5.0,5.0,605 - Arcadia,4407.0,16453.0,2000.0,0
Single Family Residential,91011.0,2500000,4.0,5.0,634 - La Canada Flintridge,4309.0,23048.0,2000.0,0
Single Family Residential,91103.0,2298000,5.0,5.0,645 - Pasadena (NW),3850.0,46701.0,1988.0,1
Single Family Residential,91105.0,2475000,5.0,6.0,Pasadena NW,5544.0,18469.0,1992.0,0
Single Family Residential,91208.0,1999000,3.0,5.0,627 - Rossmoyne & Verdu Woodlands,3968.0,8618.0,1998.0,0
Single Family Residential,91208.0,2688000,5.0,6.0,627 - Rossmoyne & Verdu Woodlands,6700.0,7810.0,1990.0,0
Single Family Residential,91302.0,2225000,5.0,6.0,CLB - Calabasas,4401.0,9821.0,2003.0,0
Single Family Residential,91304.0,1899990,5.0,5.5,699 - Not Defined,3986.0,22571.0,2021.0,1
Single Family Residential,91304.0,1900436,5.0,5.0,Sterling at West Hills,3986.0,,,0
Single Family Residential,91304.0,1974487,5.0,5.5,Sterling at West Hills,4336.0,,,0
Single Family Residential,91304.0,2006611,5.0,5.5,Sterling at West Hills,4336.0,,2021.0,0
Single Family Residential,91304.0,2585000,5.0,6.0,WEH - West Hills,5841.0,11192.0,1990.0,1
Single Family Residential,91311.0,1549000,5.0,5.0,CHT - Chatsworth,3204.0,11018.0,1971.0,0
Single Family Residential,91311.0,2243686,5.0,5.5,CHT - Chatsworth,5377.0,11668.0,2021.0,1
Single Family Residential,91311.0,2268686,5.0,5.5,Canyon Oaks,5377.0,,,0
Single Family Residential,91324.0,1799000,4.0,5.5,NR - Northridge,4443.0,18457.0,1987.0,1
Single Family Residential,91326.0,1567995,5.0,5.5,Hillcrest at Porter Ranch - Highlands Collection,3562.0,,,0
Single Family Residential,91326.0,1582995,5.0,5.5,Hillcrest at Porter Ranch - Highlands Collection,3596.0,,,0
Single Family Residential,91326.0,1660362,5.0,5.5,Hillcrest at Porter Ranch - Overlook Collection,3703.0,,,0
Single Family Residential,91326.0,1664136,5.0,5.5,Hillcrest at Porter Ranch - Overlook Collection,3680.0,,,0
Single Family Residential,91326.0,1680972,5.0,5.5,Hillcrest at Porter Ranch - Beacon Collection,3893.0,,,0
Single Family Residential,91326.0,1685472,5.0,5.5,PORA - Porter Ranch,4117.0,7857.0,2021.0,1
Single Family Residential,91326.0,1782259,5.0,5.5,PORA - Porter Ranch,4117.0,7859.0,2021.0,1
Single Family Residential,91326.0,2100000,5.0,7.0,PORA - Porter Ranch,4029.0,6589.0,2020.0,1
Single Family Residential,91326.0,2133995,5.0,5.5,Westcliffe at Porter Ranch - Summit Collection,4518.0,,,0
Single Family Residential,91326.0,2150000,5.0,5.5,PORA - Porter Ranch,5448.0,11900.0,2007.0,1
Single Family Residential,91326.0,2285995,5.0,5.5,Westcliffe at Porter Ranch - Skyline Collection,5147.0,,,0
Single Family Residential,91326.0,2288995,5.0,5.5,Westcliffe at Porter Ranch - Summit Collection,4606.0,,,0
Single Family Residential,91326.0,2305995,5.0,5.5,Westcliffe at Porter Ranch - Summit Collection,5115.0,,,0
Single Family Residential,91326.0,2345773,5.0,5.5,Westcliffe at Porter Ranch - Skyline Collection,4998.0,,,0
Single Family Residential,91326.0,2406995,5.0,5.5,Westcliffe at Porter Ranch - Summit Collection,4815.0,,,0
Single Family Residential,91326.0,2449995,5.0,5.5,PORA - Porter Ranch,3562.0,7960.0,2020.0,1
Single Family Residential,91326.0,2456995,5.0,6.0,Westcliffe at Porter Ranch - Summit Collection,5224.0,,,0
Single Family Residential,91326.0,2459525,5.0,5.5,Westcliffe at Porter Ranch - Skyline Collection,5308.0,,,0
Single Family Residential,91326.0,2572995,5.0,6.0,Westcliffe at Porter Ranch - Summit Collection,5531.0,,,0
Single Family Residential,91326.0,2699995,5.0,5.5,PORA - Porter Ranch,3806.0,7525.0,2020.0,1
Single Family Residential,91326.0,2799995,4.0,5.5,PORA - Porter Ranch,3851.0,9246.0,2018.0,1
Single Family Residential,91344.0,2300000,5.0,6.0,GH - Granada Hills,3875.0,18295.0,,1
Single Family Residential,91350.0,1100000,5.0,5.0,FEKS - Five Knolls,3723.0,6146.0,2017.0,1
Single Family Residential,91364.0,1595000,4.0,5.0,WHLL - Woodland Hills,3438.0,7626.0,1990.0,0
Single Family Residential,91364.0,1950000,5.0,6.0,Woodland Hills,3900.0,6248.0,2007.0,0
Single Family Residential,91367.0,2800000,4.0,5.0,WHLL - Woodland Hills,2691.0,36276.0,1955.0,0
Single Family Residential,91381.0,1390000,5.0,5.0,Valencia Westridge,4326.0,6843.0,2003.0,1
Single Family Residential,91390.0,1175000,5.0,5.0,ADUL - Agua Dulce,4004.0,218447.0,1992.0,0
Single Family Residential,91403.0,1649000,5.0,5.5,SO - Sherman Oaks,3645.0,6261.0,1992.0,0
Single Family Residential,91403.0,2199000,4.0,5.0,SO - Sherman Oaks,2728.0,13225.0,1957.0,0
Single Family Residential,91411.0,2495000,4.0,5.0,VN - Van Nuys,3285.0,25534.0,1947.0,0
Single Family Residential,91411.0,2550000,5.0,5.5,SO - Sherman Oaks,3035.0,6752.0,1956.0,0
Single Family Residential,91423.0,2395000,5.0,5.0,SO - Sherman Oaks,2898.0,5899.0,1948.0,0
Single Family Residential,91604.0,2099000,5.0,5.5,STUD - Studio City,4057.0,5952.0,1995.0,0
Single Family Residential,91606.0,1795000,5.0,6.0,NHO - North Hollywood,4401.0,8055.0,2017.0,0
Single Family Residential,91711.0,2168800,4.0,5.0,683 - Claremont,4494.0,15712.0,2007.0,1
Single Family Residential,91711.0,2399000,5.0,5.5,683 - Claremont,5629.0,26085.0,2005.0,1
Single Family Residential,91741.0,1880000,5.0,5.0,629 - Glendora,3763.0,41322.0,1929.0,0
Single Family Residential,91745.0,1758000,5.0,5.0,631 - Hacienda Heights,4580.0,22242.0,1980.0,1
Single Family Residential,91748.0,1399000,5.0,5.0,652 - Rowland Heights,3352.0,11061.0,1997.0,1
Single Family Residential,91750.0,1549000,5.0,5.0,684 - La Verne,4000.0,15002.0,1988.0,1
Single Family Residential,91750.0,2080000,5.0,6.0,684 - La Verne,5823.0,10359.0,1998.0,1
Single Family Residential,91750.0,2180000,5.0,5.5,684 - La Verne,5823.0,10010.0,1998.0,1
Single Family Residential,91750.0,2375000,5.0,6.0,684 - La Verne,5649.0,12880.0,1998.0,1
Single Family Residential,91750.0,2450000,5.0,5.5,684 - La Verne,6730.0,11066.0,1998.0,1
Single Family Residential,91750.0,2500000,5.0,6.0,684 - La Verne,4540.0,183919.0,2007.0,0
Single Family Residential,91754.0,1768000,4.0,5.0,641 - Monterey Park,3427.0,7172.0,2005.0,1
Single Family Residential,91765.0,2199000,5.0,5.5,616 - Diamond Bar,5287.0,85845.0,1982.0,1
Single Family Residential,91765.0,2599000,5.0,5.5,616 - Diamond Bar,5805.0,20065.0,2002.0,0
Single Family Residential,91765.0,2695000,5.0,6.0,616 - Diamond Bar,8000.0,69190.0,2022.0,1
Single Family Residential,91773.0,1525000,5.0,6.0,689 - San Dimas,5289.0,72594.0,2002.0,1
Single Family Residential,91773.0,2740000,5.0,5.5,689 - San Dimas,5145.0,22215.0,2021.0,1
Single Family Residential,91773.0,2750000,5.0,5.5,689 - San Dimas,3718.0,53655.0,2013.0,1
Single Family Residential,91780.0,2085000,5.0,5.0,661 - Temple City,4458.0,13349.0,1992.0,0
Single Family Residential,91780.0,2300000,5.0,5.0,661 - Temple City,3645.0,9487.0,2013.0,0
Single Family Residential,91780.0,2480000,5.0,5.5,661 - Temple City,3918.0,12007.0,2016.0,0
Single Family Residential,91789.0,1688888,5.0,6.0,616 - Diamond Bar,3467.0,51020.0,2018.0,1
Single Family Residential,91789.0,1780000,5.0,6.0,699 - Not Defined,3467.0,46910.0,2018.0,1
Single Family Residential,91789.0,1800000,5.0,6.0,668 - Walnut,3203.0,7488.0,1980.0,0
Single Family Residential,91789.0,2150000,5.0,6.0,668 - Walnut,4578.0,26585.0,2019.0,0
Single Family Residential,91789.0,2348000,5.0,5.5,668 - Walnut,4445.0,15204.0,2020.0,0
Single Family Residential,91789.0,2500000,5.0,6.0,668 - Walnut,4985.0,15949.0,2010.0,0
Single Family Residential,91791.0,2386800,5.0,5.0,669 - West Covina,5216.0,59501.0,2008.0,0
Single Family Residential,91791.0,2588000,5.0,5.5,669 - West Covina,5006.0,34505.0,2015.0,0
Single Family Residential,91801.0,849999,5.0,5.0,601 - Alhambra,3514.0,8494.0,1922.0,0
Single Family Residential,93536.0,695000,4.0,5.0,ANTA - Antelope Acres,3257.0,98864.0,2007.0,0
Single Family Residential,93550.0,649900,4.0,5.0,PLM - Palmdale,3003.0,6981.0,1990.0,0
Single Family Residential,93551.0,1149999,5.0,5.0,PLM - Palmdale,4315.0,40147.0,2006.0,0
Single Family Residential,93551.0,1299771,5.0,5.0,PLM - Palmdale,4761.0,112594.0,2008.0,0
Single Family Residential,93551.0,1349990,5.0,5.0,PLM - Palmdale,4860.0,19677.0,2004.0,0
Single Family Residential,93551.0,630000,4.0,5.0,Palmdale,2443.0,13192.0,2007.0,0
Single Family Residential,93551.0,680000,4.0,36.5,Palmdale,2350.0,20086.0,1991.0,1
Townhouse,90067.0,2699000,3.0,5.0,Westwood - Century City,3234.0,787367.0,1980.0,1
Townhouse,90278.0,1330000,4.0,5.0,151 - N Redondo Bch/Villas North,1993.0,7505.0,2021.0,1
Townhouse,90278.0,1430000,4.0,5.0,151 - N Redondo Bch/Villas North,2246.0,7505.0,2021.0,1
Townhouse,91702.0,527000,2.0,25.0,Azusa,1351.0,140286.0,1977.0,1
