Single Family Residential,90620,850000,8,4.0,Buena Park,3600.0,9583.0,1962.0,0
Single Family Residential,90631,2399000,6,8.0,87 - La Habra,5908.0,24012.0,1971.0,0
Single Family Residential,90720,2975000,6,4.5,51 - Rossmoor,4225.0,8250.0,2012.0,0
Single Family Residential,90742,7700000,6,6.0,17 - Northwest Huntington Beach,4621.0,2388.0,2021.0,0
Single Family Residential,92602,2349000,6,5.0,NK - Northpark,4221.0,6050.0,2001.0,1
Single Family Residential,92602,5500000,6,6.5,OH - Orchard Hills,5973.0,8139.0,2015.0,1
Single Family Residential,92603,10999999,8,11.0,SH - Shady Canyon,15796.0,27530.0,2009.0,1
Single Family Residential,92603,2798888,6,4.5,QH - Quail Hill,3597.0,5849.0,2004.0,1
Single Family Residential,92603,3499000,7,5.5,TR - Turtle Rock,5850.0,9750.0,2008.0,1
Single Family Residential,92603,5888000,6,6.5,TRG - Turtle Ridge,6259.0,14217.0,2006.0,1
Single Family Residential,92603,6850000,6,6.5,SH - Shady Canyon,7200.0,21911.0,2010.0,1
Single Family Residential,92603,8295000,6,7.0,SH - Shady Canyon,9782.0,29882.0,2007.0,1
Single Family Residential,92603,8680000,7,7.5,SH - Shady Canyon,8238.0,41604.0,2007.0,1
Single Family Residential,92603,9980000,6,8.0,SH - Shady Canyon,10728.0,23697.0,2009.0,1
Single Family Residential,92606,1499999,6,3.0,WN - Walnut (Irvine),3090.0,6500.0,1973.0,1
Single Family Residential,92618,3800000,6,6.5,GP - Great Park,6800.0,9529.0,2019.0,1
Single Family Residential,92624,2375000,6,5.5,CB - Capistrano Beach,4679.0,6552.0,1998.0,0
Single Family Residential,92625,8499000,6,8.0,CS - Corona Del Mar - Spyglass,6804.0,19350.0,1991.0,1
Single Family Residential,92627,1350000,6,4.0,C2 - Southwest Costa Mesa,3600.0,6600.0,1992.0,0
Single Family Residential,92629,9150000,6,6.5,MB - Monarch Beach,7217.0,9000.0,1993.0,1
Single Family Residential,92630,899000,6,3.0,LS - Lake Forest South,2250.0,8500.0,1965.0,0
Single Family Residential,92646,1688000,7,4.0,14 - South Huntington Beach,3024.0,6001.0,1959.0,0
Single Family Residential,92648,3295000,6,6.5,15 - West Huntington Beach,6000.0,7500.0,2008.0,0
Single Family Residential,92649,3200000,7,5.0,17 - Northwest Huntington Beach,5082.0,6000.0,1966.0,0
Single Family Residential,92651,3995000,6,4.5,LV - Laguna Village,4635.0,16463.0,2000.0,0
Single Family Residential,92651,5475000,8,8.5,LV - Laguna Village,5351.0,13000.0,2009.0,0
Single Family Residential,92651,6779000,6,6.5,LV - Laguna Village,7947.0,20400.0,2006.0,0
Single Family Residential,92651,8188000,6,6.0,LV - Laguna Village,5353.0,19125.0,2008.0,0
Single Family Residential,92651,9499000,7,7.0,NL - North Laguna,9954.0,22156.0,1996.0,1
Single Family Residential,92653,3099900,8,10.0,S2 - Laguna Hills,7372.0,15525.0,1990.0,1
Single Family Residential,92653,4200000,7,7.0,S2 - Laguna Hills,7228.0,48034.0,1987.0,1
Single Family Residential,92653,4299900,6,4.5,S2 - Laguna Hills,6839.0,17575.0,1988.0,1
Single Family Residential,92660,2495000,6,7.0,Newport Beach,4346.0,8100.0,2005.0,0
Single Family Residential,92660,3695000,6,7.5,N7 - West Bay - Santa Ana Heights,4600.0,9000.0,2010.0,0
Single Family Residential,92660,6599000,6,5.5,NV - East Bluff - Harbor View,6214.0,6695.0,2017.0,1
Single Family Residential,92661,9200000,9,7.0,NP - Balboa Peninsula,7000.0,5000.0,2021.0,0
Single Family Residential,92663,10995000,6,5.5,N6 - Newport Heights,6425.0,7083.0,1997.0,0
Single Family Residential,92663,3499999,6,6.5,N6 - Newport Heights,4822.0,5875.0,2002.0,0
Single Family Residential,92663,3950000,6,4.5,N6 - Newport Heights,4810.0,6375.0,2006.0,0
Single Family Residential,92663,4095000,6,6.5,N6 - Newport Heights,4398.0,6375.0,2021.0,0
Single Family Residential,92663,8750000,6,6.0,N6 - Newport Heights,7567.0,8890.0,2006.0,0
Single Family Residential,92673,2300000,6,5.5,FR - Forster Ranch,4314.0,15086.0,2001.0,1
Single Family Residential,92675,2100000,6,5.5,OR - Ortega/Orange County,4152.0,18704.0,2015.0,1
Single Family Residential,92675,2395000,6,4.5,DO - Del Obispo,4100.0,18960.0,1970.0,0
Single Family Residential,92675,2995000,6,4.5,DO - Del Obispo,5800.0,25187.0,1999.0,1
Single Family Residential,92675,3000000,6,4.5,OR - Ortega/Orange County,5656.0,25392.0,1994.0,1
Single Family Residential,92675,3850000,6,5.0,DO - Del Obispo,4947.0,19850.0,1999.0,0
Single Family Residential,92675,3895000,6,6.0,OR - Ortega/Orange County,6000.0,126324.0,1989.0,1
Single Family Residential,92675,4199000,6,5.5,OR - Ortega/Orange County,5459.0,43560.0,1986.0,1
Single Family Residential,92675,4888000,6,7.0,OR - Ortega/Orange County,8801.0,44650.0,1991.0,1
Single Family Residential,92675,5298000,6,7.0,OR - Ortega/Orange County,8700.0,52272.0,1995.0,1
Single Family Residential,92675,5300000,6,6.5,JN - San Juan North,8846.0,87120.0,2000.0,1
Single Family Residential,92675,5495000,6,7.0,OR - Ortega/Orange County,7881.0,35284.0,1993.0,1
Single Family Residential,92675,6788000,6,7.0,DO - Del Obispo,12000.0,47916.0,1979.0,0
Single Family Residential,92675,8180000,9,9.5,DO - Del Obispo,14366.0,65340.0,2001.0,1
Single Family Residential,92675,8995000,7,9.0,San Juan North,13400.0,117612.0,2010.0,1
Single Family Residential,92675,9200000,9,11.0,DO - Del Obispo,15883.0,191664.0,1987.0,1
Single Family Residential,92676,2499000,6,6.5,SI - Silverado Canyon,5688.0,15923.0,2004.0,1
Single Family Residential,92676,2500000,7,2.5,MO - Modjeska Canyon,5434.0,90299.0,1986.0,0
Single Family Residential,92677,1500000,6,4.0,LNSEA - Sea Country,3211.0,6500.0,1981.0,1
Single Family Residential,92677,5700000,6,7.0,LNSMT - Summit,8195.0,11250.0,2000.0,1
Single Family Residential,92677,5900000,7,10.0,699 - Not Defined,8200.0,19174.0,1979.0,0
Single Family Residential,92679,1299500,6,2.5,WW - Wagon Wheel,2400.0,8337.0,1996.0,1
Single Family Residential,92679,1535995,6,4.5,The Oaks at Portola Hills,3867.0,,,0
Single Family Residential,92679,1619995,6,5.5,The Oaks at Portola Hills,4754.0,,,0
Single Family Residential,92679,1649000,6,5.5,CC - Coto De Caza,3300.0,6840.0,1976.0,1
Single Family Residential,92679,1684995,6,6.5,The Oaks at Portola Hills,4432.0,,,0
Single Family Residential,92679,3299999,7,7.5,TC - Trabuco Canyon,6100.0,188741.0,2006.0,1
Single Family Residential,92679,4078000,7,6.5,CC - Coto De Caza,7546.0,43560.0,2000.0,1
Single Family Residential,92679,5099999,7,7.5,CC - Coto De Caza,7834.0,43560.0,1998.0,1
Single Family Residential,92705,1895000,6,5.0,NTS - North Tustin,5250.0,9300.0,2006.0,0
Single Family Residential,92705,2100000,7,7.0,NTS - North Tustin,6306.0,11178.0,1990.0,0
Single Family Residential,92705,2650000,6,5.5,699 - Not Defined,4500.0,23958.0,1965.0,0
Single Family Residential,92705,3785000,6,9.0,NTS - North Tustin,8248.0,43560.0,2006.0,0
Single Family Residential,92705,6888000,9,10.0,NTS - North Tustin,13981.0,130680.0,2002.0,1
Single Family Residential,92708,1319000,6,3.5,16 - Fountain Valley / Northeast HB,2960.0,7200.0,1964.0,0
Single Family Residential,92780,3299000,7,9.0,71 - Tustin,5600.0,17350.0,1880.0,0
Single Family Residential,92807,1399000,6,4.0,77 - Anaheim Hills,3478.0,5892.0,2001.0,1
Single Family Residential,92807,2399500,6,7.0,77 - Anaheim Hills,4470.0,78408.0,2007.0,0
Single Family Residential,92807,2490000,9,8.5,77 - Anaheim Hills,7800.0,43560.0,1977.0,0
Single Family Residential,92807,2999000,6,5.5,77 - Anaheim Hills,5607.0,56086.0,1973.0,0
Single Family Residential,92807,3199500,7,6.0,77 - Anaheim Hills,7593.0,56628.0,2000.0,0
Single Family Residential,92821,1349990,6,3.5,86 - Brea,2774.0,8850.0,1960.0,0
Single Family Residential,92831,1000000,6,5.0,83 - Fullerton,1850.0,6540.0,1951.0,0
Single Family Residential,92831,1700000,8,7.0,83 - Fullerton,4205.0,7200.0,1960.0,0
Single Family Residential,92835,3150000,6,5.5,83 - Fullerton,5390.0,26625.0,1990.0,0
Single Family Residential,92835,3750000,7,5.5,83 - Fullerton,7870.0,22500.0,1962.0,0
Single Family Residential,92841,1200000,6,4.0,"63 - Garden Grove S of Chapman, W of Euclid",2971.0,11544.0,1953.0,0
Single Family Residential,92841,1229000,7,4.0,"66 - N of Blsa, S of GGrv, E of Brookhrst, W of Ha",2500.0,8192.0,1955.0,0
Single Family Residential,92861,2700000,6,4.0,73 - Villa Park,5565.0,20400.0,1975.0,0
Single Family Residential,92861,3950000,10,9.0,73 - Villa Park,10159.0,27225.0,2005.0,0
Single Family Residential,92861,3985000,6,8.0,73 - Villa Park,9004.0,20190.0,2008.0,0
Single Family Residential,92869,2800000,6,6.5,"75 - Orange, Orange Park Acres E of 55",6500.0,43560.0,1978.0,1
Single Family Residential,92886,1974000,7,5.5,85 - Yorba Linda,3463.0,18270.0,1965.0,0
Single Family Residential,92886,1999000,6,5.5,VDV - Vista Del Verde,5213.0,21367.0,2002.0,0
Single Family Residential,92886,2775000,6,6.5,85 - Yorba Linda,5865.0,13237.0,2015.0,1
Single Family Residential,92886,3100000,6,6.5,85 - Yorba Linda,5804.0,11580.0,2001.0,0
Single Family Residential,92886,3480000,6,6.0,85 - Yorba Linda,5266.0,27452.0,2014.0,1
Single Family Residential,92886,4799999,6,8.0,85 - Yorba Linda,9302.0,43560.0,1991.0,0
Single Family Residential,92887,2498000,6,5.5,85 - Yorba Linda,4930.0,44913.0,2021.0,0
Single Family Residential,92887,3500000,6,6.0,85 - Yorba Linda,5541.0,34848.0,2004.0,1
Townhouse,92663,6195000,6,6.0,N8 - West Newport - Lido,3920.0,3602.0,1950.0,1
Townhouse,92866,1050000,6,3.0,OTO - Old Towne Orange,2649.0,7841.0,1963.0,0
Townhouse,92870,1200000,8,6.0,84 - Placentia,1760.0,8712.0,1913.0,0
